{"installed":{"client_id":"381126893305-cahahndsgtpita0ukrk50ckb5armn3p2.apps.googleusercontent.com","project_id":"quickstart-1575612040495","auth_uri":"https://accounts.google.com/o/oauth2/auth","token_uri":"https://oauth2.googleapis.com/token","auth_provider_x509_cert_url":"https://www.googleapis.com/oauth2/v1/certs","client_secret":"3uuDGp2ZSbUIdn4Vu7hAYuGk","redirect_uris":["urn:ietf:wg:oauth:2.0:oob","http://localhost"]}}




